Muestrear no es pecado - Consejos para dejar spss
…
Librerías y lectura de datos

# tidyverse por si acaso y haven para leer ficheros spss
library(tidyverse)
library(haven) 

# librerias de Daniel
# library(sjlabelled)
library(sjPlot)
library(sjmisc)

bar_mayo_2022 <-  read_sav(here::here("data/3363.sav"))

bar_mayo_2022
#> # A tibble: 3,865 × 172
#>     ESTU REGISTRO  CUES CCAA    PROV    MUN      CAPITAL TAMUNI  ENTREV  TIPO_…¹
#>    <dbl>    <dbl> <dbl> <dbl+l> <dbl+l> <dbl+lb> <dbl+l> <dbl+l> <dbl+l> <dbl+l>
#>  1  3363      552     1 1 [And… 4 [Alm…  0 [Mun… 3 [Otr… 3 [10.… 0 [Ano… 1 [Fij…
#>  2  3363      585     2 1 [And… 4 [Alm…  0 [Mun… 3 [Otr… 3 [10.… 0 [Ano… 1 [Fij…
#>  3  3363      670     3 1 [And… 4 [Alm…  0 [Mun… 3 [Otr… 3 [10.… 0 [Ano… 2 [Móv…
#>  4  3363      882     4 1 [And… 4 [Alm…  0 [Mun… 3 [Otr… 3 [10.… 0 [Ano… 1 [Fij…
#>  5  3363    14056     5 1 [And… 4 [Alm…  0 [Mun… 3 [Otr… 3 [10.… 0 [Ano… 1 [Fij…
#>  6  3363    14787     6 1 [And… 4 [Alm…  0 [Mun… 3 [Otr… 1 [Men… 0 [Ano… 1 [Fij…
#>  7  3363     1447     7 1 [And… 4 [Alm…  0 [Mun… 3 [Otr… 1 [Men… 0 [Ano… 1 [Fij…
#>  8  3363     4590     8 1 [And… 4 [Alm…  0 [Mun… 3 [Otr… 3 [10.… 0 [Ano… 2 [Móv…
#>  9  3363      223     9 1 [And… 4 [Alm… 13 [Alm… 2 [Cap… 5 [100… 0 [Ano… 2 [Móv…
#> 10  3363      399    10 1 [And… 4 [Alm… 13 [Alm… 2 [Cap… 5 [100… 0 [Ano… 1 [Fij…
#> # … with 3,855 more rows, 162 more variables: SEXO <dbl+lbl>, EDAD <dbl+lbl>,
#> #   P0 <dbl+lbl>, P1 <dbl+lbl>, P2 <dbl+lbl>, P3 <dbl+lbl>, P4 <dbl+lbl>,
#> #   P5 <dbl+lbl>, P6 <dbl+lbl>, P7_1 <dbl+lbl>, P7_2 <dbl+lbl>, P7_3 <dbl+lbl>,
#> #   P7_4 <dbl+lbl>, P7_5 <dbl+lbl>, P7_6 <dbl+lbl>, P7_7 <dbl+lbl>,
#> #   ECOESP <dbl+lbl>, ECOPER <dbl+lbl>, PESPANNA1 <dbl+lbl>,
#> #   PESPANNA2 <dbl+lbl>, PESPANNA3 <dbl+lbl>, PPERSONAL1 <dbl+lbl>,
#> #   PPERSONAL2 <dbl+lbl>, PPERSONAL3 <dbl+lbl>, PREFPTE <dbl+lbl>, …
…
