Muestrear no es pecado - Arrow y S3
…
tic()
res <- ds %>% 
    filter(year == 2021 & month == 3)  |> 
    select(year, month, day ) |> 
    group_by(day) |> 
    summarise(
        n_filas = n()
    ) |> 
    collect()

res |> 
    arrange(day) |> 
    print(n  = 10)
#> # A tibble: 30 × 2
#>      day n_filas
#>    <int>   <int>
#>  1     1 6260454
#>  2     2 6245312
#>  3     3 6243455
#>  4     4 6242304
#>  5     5 6241816
#>  6     6 6241089
#>  7     7 6241633
#>  8     8 6241651
#>  9    10 6240299
#> 10    11 6239817
#> # … with 20 more rows
…
tic()
res <- ds %>% 
    filter(year == 2021 & month == 3)  |> 
    select(year, month, day ) |> 
    to_duckdb() %>%
    group_by(day) |> 
    summarise(
        n_filas = n()
    ) |> 
    collect()

res |> 
    arrange(day) |> 
    print(n  = 10)
#> # A tibble: 30 × 2
#>      day n_filas
#>    <int>   <dbl>
#>  1     1 6260454
#>  2     2 6245312
#>  3     3 6243455
#>  4     4 6242304
#>  5     5 6241816
#>  6     6 6241089
#>  7     7 6241633
#>  8     8 6241651
#>  9    10 6240299
#> 10    11 6239817
#> # … with 20 more rows
…
