Cachitos 2025. Segunda parte – Muestrear no es pecado
…
Dejo el enlace a los ficheros de texto construidos por tesseract enlace directorio

Lectura rótulos

library(tidyverse)

root_directory = "~/proyecto_cachitos/"
anno <- "2025"

nombre_ficheros <- list.files(path = str_glue("{root_directory}{anno}_txt/")) %>% 
    enframe() %>% 
    rename(n_fichero = value)

nombre_ficheros
#> # A tibble: 717 × 2
#>     name n_fichero                     
#>    <int> <chr>                         
#>  1     1 00000014.jpg.subtitulo.tif.txt
#>  2     2 00000015.jpg.subtitulo.tif.txt
#>  3     3 00000016.jpg.subtitulo.tif.txt
#>  4     4 00000019.jpg.subtitulo.tif.txt
#>  5     5 00000020.jpg.subtitulo.tif.txt
#>  6     6 00000021.jpg.subtitulo.tif.txt
#>  7     7 00000022.jpg.subtitulo.tif.txt
#>  8     8 00000023.jpg.subtitulo.tif.txt
#>  9     9 00000025.jpg.subtitulo.tif.txt
#> 10    10 00000026.jpg.subtitulo.tif.txt
#> # ℹ 707 more rows
…
subtitulos <-  list.files(path = str_glue("{root_directory}{anno}_txt/"), 
                        pattern = "*.txt", full.names = TRUE) %>% 
    map(~read_file(.)) %>% 
    enframe() %>%  
    left_join(nombre_ficheros)

glimpse(subtitulos)
#> Rows: 717
#> Columns: 3
#> $ name      <int> 1, 2, 3, 4, 5, 6, 7, 8, 9, 10, 11, 12, 13, 14, 15, 16, 17, 1…
#> $ value     <list> "ESKORBUTO - Cuidado\n(Café Panamá, 1986)\n", "Aviso para o…
#> $ n_fichero <chr> "00000014.jpg.subtitulo.tif.txt", "00000015.jpg.subtitulo.ti…
subtitulos
#> # A tibble: 717 × 3
#>     name value     n_fichero                     
#>    <int> <list>    <chr>                         
#>  1     1 <chr [1]> 00000014.jpg.subtitulo.tif.txt
#>  2     2 <chr [1]> 00000015.jpg.subtitulo.tif.txt
#>  3     3 <chr [1]> 00000016.jpg.subtitulo.tif.txt
#>  4     4 <chr [1]> 00000019.jpg.subtitulo.tif.txt
#>  5     5 <chr [1]> 00000020.jpg.subtitulo.tif.txt
#>  6     6 <chr [1]> 00000021.jpg.subtitulo.tif.txt
#>  7     7 <chr [1]> 00000022.jpg.subtitulo.tif.txt
#>  8     8 <chr [1]> 00000023.jpg.subtitulo.tif.txt
#>  9     9 <chr [1]> 00000025.jpg.subtitulo.tif.txt
#> 10    10 <chr [1]> 00000026.jpg.subtitulo.tif.txt
#> # ℹ 707 more rows
…
subtitulos %>%
    pull(value) %>%
    pluck(604)
#> [1] "¡Un abrazo a todos los corruptos que nos ven desde la cárcel!\n\n¡Feliz año.. a la sombra!\n"

Contemos letras.

subtitulos <- subtitulos %>% 
    mutate(n_caracteres = nchar(value)) 

subtitulos %>% 
    group_by(n_caracteres) %>% 
    count()
#> # A tibble: 114 × 2
#> # Groups:   n_caracteres [114]
#>    n_caracteres     n
#>           <int> <int>
#>  1            8     1
#>  2           10     3
#>  3           11     1
#>  4           12     3
#>  5           13     2
#>  6           14     3
#>  7           15     1
#>  8           17     2
#>  9           18     2
#> 10           19     1
#> # ℹ 104 more rows
…
subtitulos %>% 
    filter(n_caracteres >= 30) %>% 
    arrange(n_caracteres)
#> # A tibble: 688 × 4
#>     name value     n_fichero                      n_caracteres
#>    <int> <list>    <chr>                                 <int>
#>  1    62 <chr [1]> 00000119.jpg.subtitulo.tif.txt           30
#>  2   675 <chr [1]> 00001261.jpg.subtitulo.tif.txt           30
#>  3   390 <chr [1]> 00000708.jpg.subtitulo.tif.txt           31
#>  4   413 <chr [1]> 00000746.jpg.subtitulo.tif.txt           32
#>  5   103 <chr [1]> 00000197.jpg.subtitulo.tif.txt           33
#>  6   104 <chr [1]> 00000198.jpg.subtitulo.tif.txt           33
#>  7   493 <chr [1]> 00000886.jpg.subtitulo.tif.txt           33
#>  8   176 <chr [1]> 00000337.jpg.subtitulo.tif.txt           34
#>  9   714 <chr [1]> 00001346.jpg.subtitulo.tif.txt           34
#> 10   265 <chr [1]> 00000489.jpg.subtitulo.tif.txt           35
#> # ℹ 678 more rows
…
    return(string)
}

# Haciendo uso de programación funciona con purrr es muy fácil pasar esta función a cada elemento. y decirle que 
# el resultado es string con map_chr

subtitulos_proces <- subtitulos %>% 
    mutate(texto = map_chr(value, string_mini_clean)) %>% 
    select(-value)

subtitulos_proces %>% 
  select(texto)
#> # A tibble: 686 × 1
#>    texto                                                                        
#>    <chr>                                                                        
#>  1 "eskorbuto cuidado café panamá 1986 "                                        
#>  2 "aviso para ofendiditos llevamos más de una década haciendo esto y seguimos …
#>  3 "si quieres prevenir el eskorbuto déjate de pepino y de chuminadas y ponle l…
#>  4 "los toreros muertos los toreros muertos tocata 1987 "                       
#>  5 "estos son los únicos toreros sobre los que existe cierto consenso están fat…
#>  6 "estos son los únicos toreros sobre los que existe cierto consenso están fat…
#>  7 "casi cuarenta años esquivando las cornadas de la corrección política "      
#>  8 "seguridad social acción plastic 1990 "                                      
#>  9 "ahora en varias comunidades autónomas se les conoce como seguro privado "   
#> 10 "seis chavales compartiendo un garaje plastic se adelantó varios años a la c…
#> # ℹ 676 more rows
…
