Cachitos 2025. Tercera parte. The hard way – Muestrear no es pecado
…
Vamos a ver si sale algo haciendo un LDA (Latent Dirichlet Allocation)

Considero 20 tópicos porque sí. El que quiera elegir con algo más de criterio que se mire esto

Show the code

# Cons

rotulos_lda <- LDA(rotulos_dtm, k = 20, control = list(seed = 1234))
rotulos_lda
#> A LDA_VEM topic model with 20 topics.

rotulos_lda_td <- tidy(rotulos_lda)
rotulos_lda_td
#> # A tibble: 57,640 × 3
#>    topic term         beta
#>    <int> <chr>       <dbl>
#>  1     1 siempre 4.35e-  3
#>  2     2 siempre 4.61e-  3
#>  3     3 siempre 2.66e-  2
#>  4     4 siempre 4.16e-196
#>  5     5 siempre 6.54e-196
#>  6     6 siempre 4.55e-196
#>  7     7 siempre 5.76e-196
#>  8     8 siempre 8.81e-196
#>  9     9 siempre 1.01e-195
#> 10    10 siempre 5.80e-196
#> # ℹ 57,630 more rows

# se suele ordenar por beta que ahora mismo no recuerdo que era, 

top_terms <- rotulos_lda_td |>
    group_by(topic) |>
    top_n(3, beta) |>
    ungroup() |>
    arrange(topic, -beta)

top_terms
#> # A tibble: 130 × 3
#>    topic term         beta
#>    <int> <chr>       <dbl>
#>  1     1 feliz      0.0217
#>  2     1 sábado     0.0174
#>  3     1 galas      0.0174
#>  4     1 día        0.0174
#>  5     2 1979       0.0138
#>  6     2 aplauso    0.0138
#>  7     2 fantástico 0.0138
#>  8     2 coche      0.0138
#>  9     2 ana        0.0138
#> 10     3 siempre    0.0266
#> # ℹ 120 more rows
…
