Muestrear no es pecado - Cachitos. Tercera parte
…
print(str_glue("Filas datos originales: {tally(subtitulos_proces)}"))
#> Filas datos originales: 541

subtitulos_proces_one_word <- subtitulos_proces %>% 
    unnest_tokens(input = texto,
                  output = word) %>% 
    filter(! word %in% to_remove) %>% # quito palabras de la lista 
    filter(nchar(word)>1) # Nos quedamos con palabras que tengan más de un cáracter

print(str_glue("Filas datos tokenizado: {tally(subtitulos_proces_one_word)}"))
#> Filas datos tokenizado: 3688

subtitulos_proces_one_word %>% 
  select(name,n_fichero,word, n_caracteres)
#> # A tibble: 3,688 × 4
#>     name n_fichero                      word      n_caracteres
#>    <dbl> <chr>                          <chr>            <dbl>
#>  1    14 00000014.jpg.subtitulo.tif.txt después             92
#>  2    14 00000014.jpg.subtitulo.tif.txt añito               92
#>  3    14 00000014.jpg.subtitulo.tif.txt pasado              92
#>  4    14 00000014.jpg.subtitulo.tif.txt aman                92
#>  5    14 00000014.jpg.subtitulo.tif.txt consuela            92
#>  6    14 00000014.jpg.subtitulo.tif.txt quiere              92
#>  7    15 00000015.jpg.subtitulo.tif.txt viendo              62
#>  8    15 00000015.jpg.subtitulo.tif.txt actitud             62
#>  9    15 00000015.jpg.subtitulo.tif.txt público             62
#> 10    15 00000015.jpg.subtitulo.tif.txt actuación           62
#> # … with 3,678 more rows
…
(exp_regx <- paste0("^",paste(palabras_1, collapse = "|^")))
#> [1] "^monarca|^pp|^vox|^rey|^coron|^zarzuela|^prisión|^democracia|^abascal|^casado|^ultra|^ciudada|^oposición|^derech|^podem|^sanchez|^iglesias|^errejon|^izquier|^gobierno|^illa|^redondo|^ivan|^celaa|^guardia|^príncipe|^principe|^ayuso|^tezanos|^cis|^republic|^simon|^pandem|^lazo|^toled|^alber|^fach|^zarzu|^democr|^vicepre|^minist|^irene|^montero|^almeida"

Y nos creamos una variable que valga TRUE cuando suceda esto

Mostrar / ocultar código

subtitulos_proces_one_word <- subtitulos_proces_one_word %>% 
    mutate(polemica= str_detect(word, exp_regx))

subtitulos_proces_one_word %>% 
  filter(polemica) %>% 
  select(name, word, n_fichero) 
#> # A tibble: 38 × 3
#>     name word     n_fichero                     
#>    <dbl> <chr>    <chr>                         
#>  1   193 gobierno 00000193.jpg.subtitulo.tif.txt
#>  2   193 pandemia 00000193.jpg.subtitulo.tif.txt
#>  3   222 montero  00000222.jpg.subtitulo.tif.txt
#>  4   222 montero  00000222.jpg.subtitulo.tif.txt
#>  5   300 illa     00000300.jpg.subtitulo.tif.txt
#>  6   308 reyes    00000308.jpg.subtitulo.tif.txt
#>  7   308 pandemia 00000308.jpg.subtitulo.tif.txt
#>  8   343 prisión  00000343.jpg.subtitulo.tif.txt
#>  9   357 zarzuela 00000357.jpg.subtitulo.tif.txt
#> 10   363 abascal  00000363.jpg.subtitulo.tif.txt
#> # … with 28 more rows
…
Vamos por cachos, valga la redundancia.

A partir de las palabras puedo recomponer el subtítulo original porque tengo el identificador, para eso la función nest es muy útil. Yo a veces utilizo esta función para almacenar en un elemento de una columna un dataframe enteror.

Mostrar / ocultar código

subtitulos_proces_one_word %>% 
    group_by(name, n_fichero) %>% 
    nest(data = word) %>% 
  select(name, data)
#> # A tibble: 573 × 3
#> # Groups:   name, n_fichero [541]
#>    n_fichero                       name data             
#>    <chr>                          <dbl> <list>           
#>  1 00000014.jpg.subtitulo.tif.txt    14 <tibble [6 × 1]> 
#>  2 00000015.jpg.subtitulo.tif.txt    15 <tibble [4 × 1]> 
#>  3 00000016.jpg.subtitulo.tif.txt    16 <tibble [6 × 1]> 
#>  4 00000019.jpg.subtitulo.tif.txt    19 <tibble [4 × 1]> 
#>  5 00000020.jpg.subtitulo.tif.txt    20 <tibble [12 × 1]>
#>  6 00000021.jpg.subtitulo.tif.txt    21 <tibble [10 × 1]>
#>  7 00000025.jpg.subtitulo.tif.txt    25 <tibble [4 × 1]> 
#>  8 00000026.jpg.subtitulo.tif.txt    26 <tibble [6 × 1]> 
#>  9 00000027.jpg.subtitulo.tif.txt    27 <tibble [8 × 1]> 
#> 10 00000031.jpg.subtitulo.tif.txt    31 <tibble [9 × 1]> 
#> # … with 563 more rows
…
subtitulos_proces_one_word %>% 
    group_by(name, n_fichero) %>% 
    nest(data = word) %>% 
    mutate(texto = map(data, unlist), 
           texto = map_chr(texto, paste, collapse = " ")) %>% 
    unnest_tokens(input = texto,
                  output = ngramas,token = "ngrams", n = n) %>% 
    ungroup() %>% 
    select(n_fichero,ngramas) %>%
    filter(nchar(ngramas)>2) %>% 
    group_by(ngramas) %>% 
    summarise(veces = n()) %>% 
    arrange(desc(veces)) %>% 
    top_n(20, veces)
#> # A tibble: 2,079 × 2
#>    ngramas                           veces
#>    <chr>                             <int>
#>  1 alto nunca llegó ser                  2
#>  2 aunque fama saturó supo               2
#>  3 aute capaz entender mundo             2
#>  4 después dos décadas elegido           2
#>  5 fama saturó supo volver               2
#>  6 justo reconocer submarino beatles     2
#>  7 llegó ser remero harvard              2
#>  8 mujer tan valiente después            2
#>  9 nunca llegó ser remero                2
#> 10 reconocer submarino beatles menos     2
#> # … with 2,069 more rows
…
