Muestrear no es pecado - ¿A/B qué?
…
Y ya tengo la estimación de cada proporción sin más que hacer el invlogit

fixef(mod_brm) %>% 
    round(digits = 2) %>% 
  inv_logit_scaled()
#>            Estimate Est.Error      Q2.5     Q97.5
#> gcontrol0 0.2261814 0.5099987 0.2124868 0.2386673
#> gcontrol1 0.1994078 0.5473576 0.1455423 0.2630841

Una cosa buena de la estimación bayesiana es que tengo la posteriori completa de ambas proporciones

post <- as_tibble(mod_brm)
post
#> # A tibble: 12,000 × 4
#>    b_gcontrol0 b_gcontrol1 lprior  lp__
#>          <dbl>       <dbl>  <dbl> <dbl>
#>  1       -1.17       -1.39      0 -128.
#>  2       -1.18       -1.38      0 -128.
#>  3       -1.20       -1.10      0 -128.
#>  4       -1.24       -1.45      0 -127.
#>  5       -1.23       -1.79      0 -129.
#>  6       -1.21       -1.60      0 -128.
#>  7       -1.21       -1.62      0 -128.
#>  8       -1.19       -1.68      0 -129.
#>  9       -1.19       -1.59      0 -128.
#> 10       -1.30       -1.54      0 -129.
#> # … with 11,990 more rows
…
