Muestrear no es pecado - Cosas viejunas. O big data para pobres
…
library(party)
# convertimos a factor las variables de tipo character

# The old school
# df1[sapply(df1, is.character)] <- lapply(df1[sapply(df1, is.character)], 
#                                                            as.factor)

# Tidyverse

df1 <- df1 %>% 
  mutate(across(where(is.character),
                as.factor))  

df1 
#> # A tibble: 9,598 × 5
#>    segmento tipo  valor_cliente  edad     n
#>    <fct>    <fct>         <dbl> <dbl> <dbl>
#>  1 No_way   B                 3    79  1612
#>  2 Best     SF                3    62    52
#>  3 No_way   SF                2    29   139
#>  4 Rec      C                 1    43    67
#>  5 Neut     C                 0    25    16
#>  6 Neut     C                 4   120     1
#>  7 No_way   SM                2    24   800
#>  8 No_way   SF                5    91     8
#>  9 Neut     SM                1    68    51
#> 10 No_way   SF                5    87    11
#> # … with 9,588 more rows
…
