Muestrear no es pecado - Cachitos 2022. Tercera parte
…
Vamos a ver si sale algo haciendo un LDA (Latent Dirichlet Allocation)

Considero 7 tópicos porque me gusta el número 7. El que quiera elegir con algo más de criterio que se mire esto

# Cons

rotulos_lda <- LDA(rotulos_dtm, k = 7, control = list(seed = 1234))
rotulos_lda
#> A LDA_VEM topic model with 7 topics.

rotulos_lda_td <- tidy(rotulos_lda)
rotulos_lda_td
#> # A tibble: 17,346 × 3
#>    topic term      beta
#>    <int> <chr>    <dbl>
#>  1     1 duran 3.39e-75
#>  2     2 duran 3.55e-75
#>  3     3 duran 6.13e- 3
#>  4     4 duran 3.56e-75
#>  5     5 duran 3.18e-75
#>  6     6 duran 3.75e-75
#>  7     7 duran 3.63e-75
#>  8     1 boom  6.21e- 3
#>  9     2 boom  4.49e-75
#> 10     3 boom  4.23e-75
#> # … with 17,336 more rows

# se suele ordenar por beta que ahora mismo no recuerdo que era, 

top_terms <- rotulos_lda_td %>%
    group_by(topic) %>%
    top_n(3, beta) %>%
    ungroup() %>%
    arrange(topic, -beta)

top_terms
#> # A tibble: 34 × 3
#>    topic term     beta
#>    <int> <chr>   <dbl>
#>  1     1 disco 0.0124 
#>  2     1 juan  0.0104 
#>  3     1 hacer 0.00878
#>  4     2 mundo 0.0130 
#>  5     2 gusta 0.00651
#>  6     2 bueno 0.00651
#>  7     2 salir 0.00651
#>  8     2 peret 0.00651
#>  9     3 fama  0.0123 
#> 10     3 voz   0.00817
#> # … with 24 more rows
…
