Trucos. Parte 1. Submodel trick – Muestrear no es pecado
…
Show the code

library(tidymodels) # modelling framework
library(workflows)
library(bonsai)     # models like lightgm
library(future)     # parallel processing

Simulo datos clasificación

Show the code

set.seed(1)
d <- simulate_classification(3e4)
d
#> # A tibble: 30,000 × 18
#>    class   two_factor_1 two_factor_2 non_linear_1 non_linear_2 non_linear_3
#>    <fct>   <fct>               <dbl> <fct>               <dbl>        <dbl>
#>  1 class_1 level_4           -0.439  level_1             0.637        0.462
#>  2 class_1 level_3            0.764  level_1             0.658        0.266
#>  3 class_1 level_3           -1.33   level_1             0.657        0.349
#>  4 class_1 level_1            1.87   level_2             0.971        0.836
#>  5 class_2 level_2            0.109  level_1             0.534        0.984
#>  6 class_1 level_5           -0.0446 level_1             0.959        0.803
#>  7 class_1 level_2            1.13   level_2             0.593        0.711
#>  8 class_1 level_2            1.45   level_2             0.396        0.582
#>  9 class_2 level_2            1.13   level_2             0.438        0.277
#> 10 class_2 level_2           -1.04   level_1             0.624        0.737
#> # ℹ 29,990 more rows
#> # ℹ 12 more variables: linear_01 <dbl>, linear_02 <dbl>, linear_03 <dbl>,
#> #   linear_04 <dbl>, linear_05 <dbl>, linear_06 <dbl>, linear_07 <dbl>,
#> #   linear_08 <dbl>, linear_09 <dbl>, linear_10 <fct>, linear_11 <fct>,
#> #   linear_12 <fct>
…
tictoc::tic()
    basic <- 
      tune_grid(
        object = bt,
        preprocessor = class ~ .,
        resamples = d_folds,
        grid = grid_random
      )
tictoc::toc()
#> 679.145 sec elapsed

Show the code

(metricas_basic <- collect_metrics(basic))
#> # A tibble: 48 × 8
#>    trees learn_rate .metric     .estimator   mean     n std_err .config         
#>    <int>      <dbl> <chr>       <chr>       <dbl> <int>   <dbl> <chr>           
#>  1   124      0.139 accuracy    binary     0.883      5 0.00231 Preprocessor1_M…
#>  2   124      0.139 brier_class binary     0.0827     5 0.00156 Preprocessor1_M…
#>  3   124      0.139 roc_auc     binary     0.957      5 0.00167 Preprocessor1_M…
#>  4   131      0.158 accuracy    binary     0.881      5 0.00204 Preprocessor1_M…
#>  5   131      0.158 brier_class binary     0.0838     5 0.00152 Preprocessor1_M…
#>  6   131      0.158 roc_auc     binary     0.956      5 0.00165 Preprocessor1_M…
#>  7    89      0.202 accuracy    binary     0.882      5 0.00259 Preprocessor1_M…
#>  8    89      0.202 brier_class binary     0.0837     5 0.00165 Preprocessor1_M…
#>  9    89      0.202 roc_auc     binary     0.956      5 0.00181 Preprocessor1_M…
#> 10    46      0.262 accuracy    binary     0.883      5 0.00204 Preprocessor1_M…
#> # ℹ 38 more rows
…
tictoc::tic()
    xgb_with_sub_trick <- 
      tune_grid(
        object = bt,
        preprocessor = class ~ .,
        resamples = d_folds,
        grid = grid_regular
      )
tictoc::toc()
#> 259.045 sec elapsed

Show the code

(metricas_xgb_sub_trick <- collect_metrics(xgb_with_sub_trick))
#> # A tibble: 48 × 8
#>    trees learn_rate .metric     .estimator   mean     n  std_err .config        
#>    <int>      <dbl> <chr>       <chr>       <dbl> <int>    <dbl> <chr>          
#>  1     1        0.1 accuracy    binary     0.864      5 0.00356  Preprocessor1_…
#>  2     1        0.1 brier_class binary     0.220      5 0.000194 Preprocessor1_…
#>  3     1        0.1 roc_auc     binary     0.943      5 0.00237  Preprocessor1_…
#>  4    47        0.1 accuracy    binary     0.886      5 0.00118  Preprocessor1_…
#>  5    47        0.1 brier_class binary     0.0812     5 0.00154  Preprocessor1_…
#>  6    47        0.1 roc_auc     binary     0.958      5 0.00187  Preprocessor1_…
#>  7    93        0.1 accuracy    binary     0.885      5 0.00188  Preprocessor1_…
#>  8    93        0.1 brier_class binary     0.0813     5 0.00155  Preprocessor1_…
#>  9    93        0.1 roc_auc     binary     0.958      5 0.00175  Preprocessor1_…
#> 10   140        0.1 accuracy    binary     0.883      5 0.00166  Preprocessor1_…
#> # ℹ 38 more rows
…
tictoc::tic()
lgb_with_sub_trick <-  
      tune_grid(
        object = bt_lgb,
        preprocessor = class ~ .,
        resamples = d_folds,
        grid = grid_regular
      )
tictoc::toc()   
#> 49.919 sec elapsed

Show the code

(metricas_lgb_with_sub_trick <- collect_metrics(lgb_with_sub_trick))
#> # A tibble: 48 × 8
#>    trees learn_rate .metric     .estimator   mean     n  std_err .config        
#>    <int>      <dbl> <chr>       <chr>       <dbl> <int>    <dbl> <chr>          
#>  1     1        0.1 accuracy    binary     0.578      5 0.0240   Preprocessor1_…
#>  2     1        0.1 brier_class binary     0.217      5 0.000366 Preprocessor1_…
#>  3     1        0.1 roc_auc     binary     0.947      5 0.00232  Preprocessor1_…
#>  4    47        0.1 accuracy    binary     0.885      5 0.00161  Preprocessor1_…
#>  5    47        0.1 brier_class binary     0.0810     5 0.00143  Preprocessor1_…
#>  6    47        0.1 roc_auc     binary     0.958      5 0.00163  Preprocessor1_…
#>  7    93        0.1 accuracy    binary     0.885      5 0.00189  Preprocessor1_…
#>  8    93        0.1 brier_class binary     0.0814     5 0.00152  Preprocessor1_…
#>  9    93        0.1 roc_auc     binary     0.958      5 0.00165  Preprocessor1_…
#> 10   140        0.1 accuracy    binary     0.883      5 0.00200  Preprocessor1_…
#> # ℹ 38 more rows
…
