Muestrear no es pecado - Cachitos 2022. Tercera parte
…
Vamos a ver si sale algo haciendo un LDA (Latent Dirichlet Allocation)

Considero 7 tópicos porque me gusta el número 7. El que quiera elegir con algo más de criterio que se mire esto

# Cons

rotulos_lda <- LDA(rotulos_dtm, k = 7, control = list(seed = 1234))
rotulos_lda
#> A LDA_VEM topic model with 7 topics.

rotulos_lda_td <- tidy(rotulos_lda)
rotulos_lda_td
#> # A tibble: 18,634 × 3
#>    topic term       beta
#>    <int> <chr>     <dbl>
#>  1     1 paco  6.09e-  9
#>  2     2 paco  9.66e- 20
#>  3     3 paco  1.16e-149
#>  4     4 paco  5.38e-109
#>  5     5 paco  2.13e-149
#>  6     6 paco  1.24e-149
#>  7     7 paco  9.01e-  3
#>  8     1 pues  1.77e-149
#>  9     2 pues  2.03e-149
#> 10     3 pues  1.50e-149
#> # ℹ 18,624 more rows

# se suele ordenar por beta que ahora mismo no recuerdo que era, 

top_terms <- rotulos_lda_td %>%
    group_by(topic) %>%
    top_n(3, beta) %>%
    ungroup() %>%
    arrange(topic, -beta)

top_terms
#> # A tibble: 21 × 3
#>    topic term           beta
#>    <int> <chr>         <dbl>
#>  1     1 1975        0.0108 
#>  2     1 abierto     0.00900
#>  3     1 estudio     0.00900
#>  4     2 viva        0.00925
#>  5     2 2000        0.00925
#>  6     2 espectáculo 0.00740
#>  7     3 millones    0.0139 
#>  8     3 300         0.0104 
#>  9     3 1974        0.0103 
#> 10     4 sábado      0.00982
#> # ℹ 11 more rows
…
