Cachitos 2024. Segunda parte – Muestrear no es pecado
…
Dejo el enlace a los ficheros de texto construidos por tesseract enlace directorio

Lectura rótulos

library(tidyverse)

root_directory = "~/proyecto_cachitos/"
anno <- "2024"

nombre_ficheros <- list.files(path = str_glue("{root_directory}{anno}_txt/")) %>% 
    enframe() %>% 
    rename(n_fichero = value)

nombre_ficheros
#> # A tibble: 769 × 2
#>     name n_fichero                     
#>    <int> <chr>                         
#>  1     1 00000010.jpg.subtitulo.tif.txt
#>  2     2 00000011.jpg.subtitulo.tif.txt
#>  3     3 00000012.jpg.subtitulo.tif.txt
#>  4     4 00000015.jpg.subtitulo.tif.txt
#>  5     5 00000016.jpg.subtitulo.tif.txt
#>  6     6 00000017.jpg.subtitulo.tif.txt
#>  7     7 00000021.jpg.subtitulo.tif.txt
#>  8     8 00000022.jpg.subtitulo.tif.txt
#>  9     9 00000023.jpg.subtitulo.tif.txt
#> 10    10 00000027.jpg.subtitulo.tif.txt
#> # ℹ 759 more rows
…
subtitulos <-  list.files(path = str_glue("{root_directory}{anno}_txt/"), 
                        pattern = "*.txt", full.names = TRUE) %>% 
    map(~read_file(.)) %>% 
    enframe() %>%  
    left_join(nombre_ficheros)

glimpse(subtitulos)
#> Rows: 769
#> Columns: 3
#> $ name      <int> 1, 2, 3, 4, 5, 6, 7, 8, 9, 10, 11, 12, 13, 14, 15, 16, 17, 1…
#> $ value     <list> "CONCHA VELASCO\n(Tiempo de fiesto, 1971)\n\f", "y > HEYO H…
#> $ n_fichero <chr> "00000010.jpg.subtitulo.tif.txt", "00000011.jpg.subtitulo.ti…
subtitulos
#> # A tibble: 769 × 3
#>     name value     n_fichero                     
#>    <int> <list>    <chr>                         
#>  1     1 <chr [1]> 00000010.jpg.subtitulo.tif.txt
#>  2     2 <chr [1]> 00000011.jpg.subtitulo.tif.txt
#>  3     3 <chr [1]> 00000012.jpg.subtitulo.tif.txt
#>  4     4 <chr [1]> 00000015.jpg.subtitulo.tif.txt
#>  5     5 <chr [1]> 00000016.jpg.subtitulo.tif.txt
#>  6     6 <chr [1]> 00000017.jpg.subtitulo.tif.txt
#>  7     7 <chr [1]> 00000021.jpg.subtitulo.tif.txt
#>  8     8 <chr [1]> 00000022.jpg.subtitulo.tif.txt
#>  9     9 <chr [1]> 00000023.jpg.subtitulo.tif.txt
#> 10    10 <chr [1]> 00000027.jpg.subtitulo.tif.txt
#> # ℹ 759 more rows
…
subtitulos %>%
    pull(value) %>%
    pluck(246)
#> [1] "El cámara sufriendo más para encontrar a Bisbal que\n\nnosotros una cifra exacta en “Cifras y Letras”.\n\f"

Contemos letras.

subtitulos <- subtitulos %>% 
    mutate(n_caracteres = nchar(value)) 

subtitulos %>% 
    group_by(n_caracteres) %>% 
    count()
#> # A tibble: 111 × 2
#> # Groups:   n_caracteres [111]
#>    n_caracteres     n
#>           <int> <int>
#>  1           10     2
#>  2           11     2
#>  3           12     2
#>  4           14     4
#>  5           15     2
#>  6           16     1
#>  7           17     1
#>  8           18     2
#>  9           19     2
#> 10           21     1
#> # ℹ 101 more rows
…
subtitulos %>% 
    filter(n_caracteres >= 30) %>% 
    arrange(n_caracteres)
#> # A tibble: 742 × 4
#>     name value     n_fichero                      n_caracteres
#>    <int> <list>    <chr>                                 <int>
#>  1   410 <chr [1]> 00000707.jpg.subtitulo.tif.txt           30
#>  2   315 <chr [1]> 00000541.jpg.subtitulo.tif.txt           33
#>  3   455 <chr [1]> 00000785.jpg.subtitulo.tif.txt           35
#>  4   336 <chr [1]> 00000571.jpg.subtitulo.tif.txt           36
#>  5   363 <chr [1]> 00000618.jpg.subtitulo.tif.txt           36
#>  6   213 <chr [1]> 00000372.jpg.subtitulo.tif.txt           37
#>  7   338 <chr [1]> 00000576.jpg.subtitulo.tif.txt           37
#>  8   469 <chr [1]> 00000819.jpg.subtitulo.tif.txt           37
#>  9   177 <chr [1]> 00000307.jpg.subtitulo.tif.txt           38
#> 10   222 <chr [1]> 00000386.jpg.subtitulo.tif.txt           38
#> # ℹ 732 more rows
…
    return(string)
}

# Haciendo uso de programación funciona con purrr es muy fácil pasar esta función a cada elemento. y decirle que 
# el resultado es string con map_chr

subtitulos_proces <- subtitulos %>% 
    mutate(texto = map_chr(value, string_mini_clean)) %>% 
    select(-value)

subtitulos_proces %>% 
  select(texto)
#> # A tibble: 741 × 1
#>    texto                                                                        
#>    <chr>                                                                        
#>  1 "concha velasco tiempo de fiesto 1971 "                                      
#>  2 "hello hello buenas noches lo primero "                                      
#>  3 "lorenzo santamaría hello hello luces en la noche 1974 "                     
#>  4 "santamaría era tan apuesto que este cachito lo patrocina codere "           
#>  5 "aquel día el coreógrafo se había pillado el día de asuntos propios "        
#>  6 "mari trini escúchame luces en la noche 1972 "                               
#>  7 "transgresora valiente feminista mejor nos habría ido si la hubiéramos escuc…
#>  8 "nota que el sofá tenga orejas no significa que pueda escucharte "           
#>  9 "juan erasmo mochi y parió la abuela "                                       
#> 10 "tiene mucho mérito triunfar llamándote mochi fuera de la carta de un restau…
#> # ℹ 731 more rows
…
