Cachitos 2024. Tercera parte – Muestrear no es pecado
…
Vamos a ver si sale algo haciendo un LDA (Latent Dirichlet Allocation)

Considero 20 tópicos porque sí. El que quiera elegir con algo más de criterio que se mire esto

Show the code

# Cons

rotulos_lda <- LDA(rotulos_dtm, k = 20, control = list(seed = 1234))
rotulos_lda
#> A LDA_VEM topic model with 20 topics.

rotulos_lda_td <- tidy(rotulos_lda)
rotulos_lda_td
#> # A tibble: 55,400 × 3
#>    topic term       beta
#>    <int> <chr>     <dbl>
#>  1     1 chiki 2.25e-215
#>  2     2 chiki 2.63e-215
#>  3     3 chiki 1.33e-215
#>  4     4 chiki 8.80e-216
#>  5     5 chiki 1.37e-215
#>  6     6 chiki 7.73e-216
#>  7     7 chiki 1.56e-215
#>  8     8 chiki 1.68e-215
#>  9     9 chiki 1.35e-215
#> 10    10 chiki 1.28e-215
#> # ℹ 55,390 more rows

# se suele ordenar por beta que ahora mismo no recuerdo que era, 

top_terms <- rotulos_lda_td %>%
    group_by(topic) %>%
    top_n(3, beta) %>%
    ungroup() %>%
    arrange(topic, -beta)

top_terms
#> # A tibble: 126 × 3
#>    topic term       beta
#>    <int> <chr>     <dbl>
#>  1     1 musical  0.0273
#>  2     1 1998     0.0164
#>  3     1 gala     0.0164
#>  4     2 1985     0.0282
#>  5     2 1978     0.0226
#>  6     2 millones 0.0169
#>  7     2 300      0.0169
#>  8     2 tocata   0.0169
#>  9     2 mismos   0.0169
#> 10     3 pedro    0.0295
#> # ℹ 116 more rows
…
