Muestrear no es pecado - Cachitos. Tercera parte
…
print(str_glue("Filas datos originales: {tally(subtitulos_proces)}"))
#> Filas datos originales: 687

subtitulos_proces_one_word <- subtitulos_proces %>% 
    unnest_tokens(input = texto,
                  output = word) %>% 
    filter(! word %in% to_remove) %>% # quito palabras de la lista 
    filter(nchar(word)>1) # Nos quedamos con palabras que tengan más de un cáracter

print(str_glue("Filas datos tokenizado: {tally(subtitulos_proces_one_word)}"))
#> Filas datos tokenizado: 4735

subtitulos_proces_one_word %>% 
  select(name,n_fichero,word, n_caracteres)
#> # A tibble: 4,735 × 4
#>     name n_fichero                      word          n_caracteres
#>    <dbl> <chr>                          <chr>                <dbl>
#>  1    14 00000014.jpg.subtitulo.tif.txt servicio               118
#>  2    14 00000014.jpg.subtitulo.tif.txt meteorológico          118
#>  3    14 00000014.jpg.subtitulo.tif.txt cachitos               118
#>  4    14 00000014.jpg.subtitulo.tif.txt informa                118
#>  5    14 00000014.jpg.subtitulo.tif.txt prevén                 118
#>  6    14 00000014.jpg.subtitulo.tif.txt vientos                118
#>  7    14 00000014.jpg.subtitulo.tif.txt fiesta                 118
#>  8    14 00000014.jpg.subtitulo.tif.txt fuertes                118
#>  9    14 00000014.jpg.subtitulo.tif.txt próximas               118
#> 10    14 00000014.jpg.subtitulo.tif.txt tres                   118
#> # … with 4,725 more rows
…
Construimos una regex para que encuentre las palabras que empiecen así.

(exp_regx <- paste0("^",paste(palabras_1, collapse = "|^")))
#> [1] "^monarca|^pp|^vox|^rey|^coron|^zarzuela|^prisión|^democracia|^abascal|^casado|^ultra|^ciudada|^oposición|^derech|^podem|^sanchez|^iglesias|^errejon|^izquier|^gobierno|^illa|^redondo|^ivan|^celaa|^guardia|^príncipe|^principe|^ayuso|^tezanos|^cis|^republic|^simon|^pandem|^lazo|^arrim|^toled|^alber|^fach|^zarzu|^democr|^vicepre|^minist|^irene|^montero|^almeida|^monarq"

Y nos creamos una variable que valga TRUE cuando suceda esto

subtitulos_proces_one_word <- subtitulos_proces_one_word %>% 
    mutate(polemica= str_detect(word, exp_regx))

subtitulos_proces_one_word %>% 
  filter(polemica) %>% 
  select(name, word, n_fichero) 
#> # A tibble: 32 × 3
#>     name word      n_fichero                     
#>    <dbl> <chr>     <chr>                         
#>  1   139 reyes     00000139.jpg.subtitulo.tif.txt
#>  2   169 arrima    00000169.jpg.subtitulo.tif.txt
#>  3   169 monarquía 00000169.jpg.subtitulo.tif.txt
#>  4   330 pandemia  00000330.jpg.subtitulo.tif.txt
#>  5   397 ministro  00000397.jpg.subtitulo.tif.txt
#>  6   398 pandemia  00000398.jpg.subtitulo.tif.txt
#>  7   404 guardia   00000404.jpg.subtitulo.tif.txt
#>  8   581 iglesias  00000581.jpg.subtitulo.tif.txt
#>  9   621 podemos   00000621.jpg.subtitulo.tif.txt
#> 10   641 illa      00000641.jpg.subtitulo.tif.txt
#> # … with 22 more rows
…
